[
  {
    "id": "gesetzst",
    "type": "chapter",
    "title": "Gesetze für die jüdische Gemeinde-Schule in Berlin",
    "container-title": "Chevrat Chinuch Nearim – Die jüdische Freischule in Berlin (1778-1825) im Umfeld preußischer Bildungspolitik und jüdischer Kultusreform. Eine Quellensammlung",
    "publisher": "Waxmann",
    "publisher-place": "Münster",
    "page": "1185–1188",
    "event-place": "Münster",
    "note": "original-date: 1827",
    "shortTitle": "Gesetze",
    "editor": [
      {
        "family": "Lohmann",
        "given": "Ingrid"
      }
    ],
    "issued": {
      "date-parts": [
        [
          2001
        ]
      ]
    }
  },
  {
    "id": "gesetzts",
    "type": "chapter",
    "title": "Gesetze für die jüdische Gemeinde-Schule in Berlin",
    "container-title": "Chevrat Chinuch Nearim – Die jüdische Freischule in Berlin (1778-1825) im Umfeld preußischer Bildungspolitik und jüdischer Kultusreform. Eine Quellensammlung",
    "publisher": "Waxmann",
    "publisher-place": "Münster",
    "page": "1185–1188",
    "event-place": "Münster",
    "note": "original-date: 1827",
    "title-short": "Gesetze",
    "editor": [
      {
        "family": "Lohmann",
        "given": "Ingrid"
      }
    ],
    "issued": {
      "date-parts": [
        [
          "2001"
        ]
      ]
    }
  },
  {
    "id": "verfahrensweisest",
    "type": "manuscript",
    "title": "Zur Verfahrensweise bei der Erneuerung an den Hochschulen in den Ländern im Osten Deutschlands",
    "archive": "Bundesarchiv",
    "archive_location": "DR7/128",
    "shortTitle": "Zur Verfahrensweise",
    "issued": {
      "date-parts": [
        [
          "1990",
          11,
          13
        ]
      ]
    }
  },
  {
    "id": "verfahrensweisets",
    "type": "manuscript",
    "title": "Zur Verfahrensweise bei der Erneuerung an den Hochschulen in den Ländern im Osten Deutschlands",
    "archive": "Bundesarchiv",
    "archive_location": "DR7/128",
    "title-short": "Zur Verfahrensweise",
    "issued": {
      "date-parts": [
        [
          "1990",
          11,
          13
        ]
      ]
    }
  }
]
